module gitlab.ethz.ch/itlehrlabor/netcenter-client-go

go 1.18

require github.com/spf13/cobra v1.5.0 // direct

require (
	github.com/inconshreveable/mousetrap v1.0.0 // indirect
	github.com/sirupsen/logrus v1.9.0 // indirect
	github.com/spf13/pflag v1.0.5 // indirect
	golang.org/x/sys v0.0.0-20220715151400-c0bba94af5f8 // indirect
)
